%YAML 1.1
%TAG !u! tag:unity3d.com,2011:
--- !u!78 &1
TagManager:
  serializedVersion: 2
  tags:
  - Building
  - UI
  - Enemy
  - Objective
  layers:
  - Default
  - TransparentFX
  - Ignore Raycast
  - 
  - Water
  - UI
  - Player
  - Moonster
  - Building
  - Power Plant
  - Detect Moonster Target
  - 
  - 
  - 
  - 
  - 
  - 
  - 
  - 
  - 
  - 
  - 
  - 
  - 
  - 
  - 
  - 
  - 
  - 
  - 
  - 
  - 
  m_SortingLayers:
  - name: Sky
    uniqueID: 2993632355
    locked: 0
  - name: Mountains
    uniqueID: 295471399
    locked: 0
  - name: Background
    uniqueID: 1514507187
    locked: 0
  - name: Default
    uniqueID: 0
    locked: 0
